<?xml version="1.0" encoding="utf-8"?>
<!-- Generator: Adobe Illustrator 24.2.0, SVG Export Plug-In . SVG Version: 6.00 Build 0)  -->
<svg version="1.1" id="Capa_1" xmlns="http://www.w3.org/2000/svg" xmlns:xlink="http://www.w3.org/1999/xlink" x="0px" y="0px"
	 viewBox="0 0 192 141" style="enable-background:new 0 0 192 141;" xml:space="preserve">
<style type="text/css">
	.st0{fill:#FC263A;}
</style>
<g id="Wf1KHP.tif">
	<g>
		<path class="st0" d="M0.1,67.8C0.5,43.5,9,22.3,25.7,4.5c4.5-4.9,9.3-5.2,13.5-1.3c4.3,3.9,4.5,8.7,0,13.6
			c-13.3,14.5-20.5,31.5-21,51.1c-0.5,18.6,5.1,35.6,16.8,50.3c1.8,2.3,3.8,4.3,5.5,6.7c3,4.1,2.4,8.9-1.5,12.2
			c-3.8,3.3-8.8,3.3-12.3-0.3C10.9,120.2,2,100.6,0.1,77.8C-0.1,74.5,0.1,71.2,0.1,67.8z"/>
		<path class="st0" d="M192,70.1c0.1,25.5-9.2,47.3-26.2,66c-3.8,4.1-8.8,4.4-12.9,0.9c-4.1-3.5-4.6-8.4-0.8-12.9
			c7.4-8.7,14-18,17.4-29c8.9-28.4,3.8-54.1-15.5-76.9c-2.3-2.7-4.9-5.2-4.3-9.1c0.6-3.9,2.9-6.6,6.6-8c3.8-1.4,6.8,0,9.4,2.7
			c13.7,14.4,22,31.4,25.3,50.9C191.8,59.8,192,65,192,70.1z"/>
		<path class="st0" d="M152.8,69.3c0.1,13.9-4.4,25.3-13.1,35.1c-3.9,4.4-9.2,5.1-13.2,1.8c-4.1-3.5-4.4-8.4-0.3-13.2
			c9.4-11.1,11.3-23.4,5.9-36.9c-1.4-3.5-3.8-6.5-6.2-9.5c-3.8-4.6-3.4-9.2,0.7-12.8c3.9-3.3,8.7-3,12.5,1.1
			C148.2,44.8,152.9,56.5,152.8,69.3z"/>
		<path class="st0" d="M39.1,69.9c-0.1-13.2,4.4-24.4,13-34.1c4.2-4.8,8.9-5.5,13.1-2c4.3,3.6,4.9,8.5,0.6,13.1
			c-12.2,13.3-11.5,34.5,0,46.4c4.2,4.3,3.6,9.4-0.3,12.8c-3.9,3.4-9.2,2.8-13.2-1.6C43.4,94.6,39.1,83,39.1,69.9z"/>
		<path class="st0" d="M95.9,51.6c10.1,0.1,18.4,8.5,18.2,18.3c-0.2,9.8-8.6,18-18.2,17.9c-9.6-0.1-18.2-8.7-18-18.2
			C78,59.8,86.4,51.5,95.9,51.6z"/>
	</g>
</g>
</svg>
